<svg xmlns="http://www.w3.org/2000/svg" width="16px" height="16px" viewBox="0 0 16 16">
 <!-- SPDX-License-Identifier: CC0-1.0 -->
 <!-- SPDX-FileCopyrightText: The GNOME Project <https://www.gnome.org/>, Icon Development Kit -->
 <path d="m 1.992188 0 c -1.089844 0 -2.0000005 0.910156 -2.0000005 2 v 3 c 0 1.089844 0.9101565 2 2.0000005 2 h 3 c 1.089843 0 2 -0.910156 2 -2 v -3 c 0 -1.089844 -0.910157 -2 -2 -2 z m 8 0 c -1.089844 0 -2 0.910156 -2 2 v 3 c 0 1.089844 0.910156 2 2 2 h 3 c 1.089843 0 2 -0.910156 2 -2 v -3 c 0 -1.089844 -0.910157 -2 -2 -2 z m -8 2 h 3 v 3 h -3 z m 8 0 h 3 v 3 h -3 z m -8 6 c -1.089844 0 -2.0000005 0.910156 -2.0000005 2 v 3 c 0 1.089844 0.9101565 2 2.0000005 2 h 3 c 1.089843 0 2 -0.910156 2 -2 v -3 c 0 -1.089844 -0.910157 -2 -2 -2 z m 8 0 c -1.089844 0 -2 0.910156 -2 2 v 3 c 0 1.089844 0.910156 2 2 2 h 3 c 1.089843 0 2 -0.910156 2 -2 v -3 c 0 -1.089844 -0.910157 -2 -2 -2 z m -8 2 h 3 v 3 h -3 z m 8 0 h 3 v 3 h -3 z m 0 0" fill="#222222"/>
</svg>