<svg xmlns="http://www.w3.org/2000/svg" width="16px" height="16px" viewBox="0 0 16 16">
 <!-- SPDX-License-Identifier: CC-BY-SA-3.0 -->
 <!-- SPDX-FileCopyrightText: The GNOME Project <https://www.gnome.org/>, Adwaita Icon Theme -->
 <g fill="#474747" fill-rule="evenodd">
  <path d="M3 1 a1 1 0 0 0 -1 1 v13 a1 1 0 0 0 1 1 h10 a1 1 0 0 0 1 -1 v-9.5 a1 1 0 0 0 -.293 -.707 l-3.5-3.5 a1 1 0 0 0 -.707 -.293 z m1 2 H9 l3 3 v8 h-8 z" overflow="visible"/>
  <path d="M9 2 v4 h4 z"/>
 </g>
</svg>